[
  {
    "men_name": "Cadastros",
    "men_icon": "fa-list-alt",
    "items": [
      {
        "men_name": "Pacientes",
        "men_route": "app.pacientes.list",
        "men_icon": "fa-user"
      },
      {
        "men_name": "Especialidades",
        "men_route": "app.especialidades.list",
        "men_icon": "fa-certificate"
      },
      {
        "men_name": "Prestadores",
        "men_route": "app.prestadores.list",
        "men_icon": "fa-id-card-o"
      },
      {
        "men_name": "CID",
        "men_route": "app.doencas.list",
        "men_icon": "fa-bullhorn"
      },
      {
        "men_name": "Indicadores",
        "men_route": "app.indicadores.list",
        "men_icon": "fa-bar-chart"
      },
      {
        "men_name": "Formulários",
        "men_route": "app.formularios.list",
        "men_icon": "fa-wpforms"
      },
      {
        "men_name": "Programas",
        "men_route": "app.programas.list",
        "men_icon": "fa-cog"
      },
      {
        "men_name": "Conveniados",
        "men_route": "app.conveniados.list",
        "men_icon": "fa-warning"
      },
      {
        "men_name": "Convênios",
        "men_route": "app.convenios.list",
        "men_icon": "fa-handshake-o"
      },
      {
        "men_name": "Período de Atendimentos",
        "men_route": "app.reservationProblems.list",
        "men_icon": "fa-calendar-plus-o"
      },
      {
        "men_name": "Seleção de Pacientes",
        "men_route": "app.reservationProblems.list",
        "men_icon": "fa-users"
      },
      {
        "men_name": "Feriados",
        "men_route": "app.feriados.list",
        "men_icon": "fa-calendar-times-o"
      },
      {
        "men_name": "Pré-Receitas",
        "men_route": "app.preReceitas.list",
        "men_icon": "fa-file-powerpoint-o"
      },
      {
        "men_name": "Documentos Médicos",
        "men_route": "app.documentosMedicos.list",
        "men_icon": "fa-file-o"
      }
    ]
  },
  {
    "men_name": "Agenda",
    "men_icon": "fa-calendar",
    "items": [
      {
        "men_name": "Agenda",
        "men_route": "app.agenda",
        "men_icon": "fa-calendar"
      }
    ]
  },
  {
    "men_name": "Prontuário",
    "men_icon": "fa-user-md",
    "items": [
      {
        "men_name": "Prontuário",
        "men_route": "app.prontuarios.list",
        "men_icon": "fa-user-md"
      }
    ]
  },
  {
    "men_name": "Relatórios",
    "men_icon": "fa-print",
    "items": [
      {
        "men_name": "Paciente",
        "men_route": "app.reservationProblems.list",
        "men_icon": "fa-address-card-o"
      },
      {
        "men_name": "Indicações",
        "men_route": "app.reservationProblems.list",
        "men_icon": "fa-user-plus"
      },
      {
        "men_name": "Evolução",
        "men_route": "app.reservationProblems.list",
        "men_icon": "fa-caret-square-o-up"
      },
      {
        "men_name": "Resumo",
        "men_route": "app.reservationProblems.list",
        "men_icon": "fa-window-restore"
      },
      {
        "men_name": "Fechamento",
        "men_route": "app.reservationProblems.list",
        "men_icon": "fa-print"
      }
    ]
  },
  {
    "men_name": "Configurações",
    "men_icon": "fa-cogs",
    "items": [
      {
        "men_name": "Conselhos",
        "men_route": "app.conselhos.list",
        "men_icon": "fa-bank"
      },
      {
        "men_name": "Empresas",
        "men_route": "app.empresas.list",
        "men_icon": "fa-building"
      },
      {
        "men_name": "Unidades de Medida",
        "men_route": "app.unidades-medida.list",
        "men_icon": "fa-thermometer-three-quarters"
      },
      {
        "men_name": "Bancos",
        "men_route": "app.bancos.list",
        "men_icon": "fa-university"
      },
      {
        "men_name": "Plano de Saude",
        "men_route": "app.planodesaudes.list",
        "men_icon": "fa-heartbeat"
      },
      {
        "men_name": "Medicamentos",
        "men_route": "app.medicamentos.list",
        "men_icon": "fa-heartbeat"
      },
      {
        "men_name": "Estado Civil",
        "men_route": "app.estadocivils.list",
        "men_icon": "fa-heart"
      },
      {
        "men_name": "Tipo de Telefone",
        "men_route": "app.tipodetelefones.list",
        "men_icon": "fa-phone"
      },
      {
        "men_name": "Tipo Sanguíneo",
        "men_route": "app.tiposanguineos.list",
        "men_icon": "fa-plus-square"
      },
      {
        "men_name": "Posologia",
        "men_route": "app.posologias.list",
        "men_icon": "fa-universal-access"
      },
      {
        "men_name": "Duração",
        "men_route": "app.duracaos.list",
        "men_icon": "fa-clock-o"
      },
      {
        "men_name": "Via",
        "men_route": "app.vias.list",
        "men_icon": "fa-hospital-o"
      },
      {
        "men_name": "Frequência",
        "men_route": "app.frequencias.list",
        "men_icon": "fa-calendar-check-o"
      },
      {
        "men_name": "Perfil Usuário",
        "men_route": "app.perfilusuarios.list",
        "men_icon": "fa-user-circle-o"
      },
      {
        "men_name": "Usuários",
        "men_route": "app.users.list",
        "men_icon": "fa-users"
      }
    ]
  }
]
