{
  "name": "Especialidade",
  "plural": "especialidades",
  "base": "FwBaseModel",
  "idInjection": true,
  "options": {
    "validateUpsert": true
  },
  "mixins": {
    "CompanyScope": true
  },
  "properties": {
    "descricao": {
      "type": "string",
      "required": true
    },
    "funcao": {
      "type": "string",
      "required": true
    },
    "situacao": {
      "type": "boolean",
      "required": true
    }
  },
  "validations": [],
  "relations": {},
  "acls": [
    {
      "accessType": "*",
      "principalType": "ROLE",
      "principalId": "$everyone",
      "permission": "DENY"
    },
    {
      "accessType": "*",
      "principalType": "ROLE",
      "principalId": "admin",
      "permission": "ALLOW"
    },
    {
      "accessType": "READ",
      "principalType": "ROLE",
      "principalId": "$authenticated",
      "permission": "ALLOW"
    }
  ],
  "methods": {}
}
