{
  "loopback-lets-auto-migrate-component": {
    "enabled": false,
    "raiseError": false,
    "migration": "auto-update",
    "models": "./server/data/application.models.json",
    "fixtures": "./bin/data/"
  }
}
