[
    {
        "id": 1,
        "nome": "Nacional"
    },
    {
        "id": 2,
        "nome": "Estadual"
    },
    {
        "id": 3,
        "nome": "Municipal"
    },
    {
        "id": 4,
        "nome": "Mundial"
    }
]
